CPU.vcd
$date
	Mon Jan 04 04:07:34 2021
$end
$version
	Icarus Verilog
$end
$timescale
	1s
$end
$scope module testbench $end
$var wire 256 ! mem_cpu_data [255:0] $end
$var wire 1 " mem_cpu_ack $end
$var wire 1 # cpu_mem_write $end
$var wire 1 $ cpu_mem_enable $end
$var wire 256 % cpu_mem_data [255:0] $end
$var wire 32 & cpu_mem_addr [31:0] $end
$var reg 1 ' Clk $end
$var reg 1 ( Reset $end
$var reg 1 ) Start $end
$var reg 27 * address [26:0] $end
$var reg 1 + flag $end
$var reg 4 , index [3:0] $end
$var reg 25 - tag [24:0] $end
$var integer 32 . counter [31:0] $end
$var integer 32 / i [31:0] $end
$var integer 32 0 j [31:0] $end
$var integer 32 1 outfile [31:0] $end
$var integer 32 2 outfile2 [31:0] $end
$scope module CPU $end
$var wire 1 ' clk_i $end
$var wire 1 ( rst_i $end
$var wire 1 ) start_i $end
$var wire 1 # mem_write_o $end
$var wire 1 $ mem_enable_o $end
$var wire 256 3 mem_data_o [255:0] $end
$var wire 256 4 mem_data_i [255:0] $end
$var wire 32 5 mem_addr_o [31:0] $end
$var wire 1 " mem_ack_i $end
$var wire 32 6 PC_addr [31:0] $end
$var wire 1 7 MemStall $end
$var wire 32 8 IFID_inst_o [31:0] $end
$var wire 32 9 IFID_addr_o [31:0] $end
$scope module ALU $end
$var wire 32 : data2_i [31:0] $end
$var wire 32 ; data1_i [31:0] $end
$var wire 1 < Zero_o $end
$var wire 4 = ALUCtrl_i [3:0] $end
$var reg 32 > data_o [31:0] $end
$upscope $end
$scope module ALU_Control $end
$var wire 10 ? funct_i [9:0] $end
$var wire 2 @ ALUOp_i [1:0] $end
$var reg 4 A ALUCtrl_o [3:0] $end
$upscope $end
$scope module Add_Branch_addr $end
$var wire 32 B data1_i [31:0] $end
$var wire 32 C data_o [31:0] $end
$var wire 32 D data2_i [31:0] $end
$upscope $end
$scope module Add_PC $end
$var wire 32 E data2_i [31:0] $end
$var wire 32 F data_o [31:0] $end
$var wire 32 G data1_i [31:0] $end
$upscope $end
$scope module Branch_And $end
$var wire 1 H data_o $end
$var wire 1 I data2_i $end
$var wire 1 J data1_i $end
$upscope $end
$scope module Control $end
$var wire 7 K Op_i [6:0] $end
$var wire 1 L NoOp_i $end
$var reg 2 M ALUOp_o [1:0] $end
$var reg 1 N ALUSrc_o $end
$var reg 1 J Branch_o $end
$var reg 1 O MemRead_o $end
$var reg 1 P MemWrite_o $end
$var reg 1 Q MemtoReg_o $end
$var reg 1 R RegWrite_o $end
$upscope $end
$scope module EXMEM $end
$var wire 32 S ALUdata_i [31:0] $end
$var wire 1 ' clk_i $end
$var wire 1 ) start_i $end
$var wire 1 T RegWrite_i $end
$var wire 5 U RDaddr_i [4:0] $end
$var wire 1 V MemtoReg_i $end
$var wire 1 W MemWrite_i $end
$var wire 32 X MemWdata_i [31:0] $end
$var wire 1 Y MemRead_i $end
$var wire 1 7 EXMEMenable_i $end
$var reg 32 Z ALUdata_o [31:0] $end
$var reg 1 [ MemRead_o $end
$var reg 32 \ MemWdata_o [31:0] $end
$var reg 1 ] MemWrite_o $end
$var reg 1 ^ MemtoReg_o $end
$var reg 5 _ RDaddr_o [4:0] $end
$var reg 1 ` RegWrite_o $end
$upscope $end
$scope module Forward $end
$var wire 5 a EXMEM_Rd_i [4:0] $end
$var wire 1 ` EXMEM_RegWrite_i $end
$var wire 2 b ForwardA_o [1:0] $end
$var wire 2 c ForwardB_o [1:0] $end
$var wire 1 d MEMWB_RegWrite_i $end
$var wire 5 e MEMWB_Rd_i [4:0] $end
$var wire 5 f IDEX_RS2_i [4:0] $end
$var wire 5 g IDEX_RS1_i [4:0] $end
$var reg 2 h ForwardA_reg [1:0] $end
$var reg 2 i ForwardB_reg [1:0] $end
$upscope $end
$scope module Hazard_Detection $end
$var wire 5 j IFID_RS1_i [4:0] $end
$var wire 5 k IFID_RS2_i [4:0] $end
$var wire 5 l IDEX_RD_i [4:0] $end
$var wire 1 Y IDEX_MemRead_i $end
$var reg 1 L NoOp_o $end
$var reg 1 m PCWrite_o $end
$var reg 1 n Stall_o $end
$upscope $end
$scope module IDEX $end
$var wire 2 o ALUOp_i [1:0] $end
$var wire 1 N ALUSrc_i $end
$var wire 1 O MemRead_i $end
$var wire 1 P MemWrite_i $end
$var wire 1 Q MemtoReg_i $end
$var wire 5 p RDaddr_i [4:0] $end
$var wire 5 q RS1addr_i [4:0] $end
$var wire 5 r RS2addr_i [4:0] $end
$var wire 1 R RegWrite_i $end
$var wire 1 ' clk_i $end
$var wire 10 s funct_7_3_i [9:0] $end
$var wire 1 ) start_i $end
$var wire 32 t RS2data_i [31:0] $end
$var wire 32 u RS1data_i [31:0] $end
$var wire 32 v ImmGen_i [31:0] $end
$var wire 1 7 IDEXenable_i $end
$var reg 2 w ALUOp_o [1:0] $end
$var reg 1 x ALUSrc_o $end
$var reg 32 y ImmGen_o [31:0] $end
$var reg 1 Y MemRead_o $end
$var reg 1 W MemWrite_o $end
$var reg 1 V MemtoReg_o $end
$var reg 5 z RDaddr_o [4:0] $end
$var reg 5 { RS1addr_o [4:0] $end
$var reg 32 | RS1data_o [31:0] $end
$var reg 5 } RS2addr_o [4:0] $end
$var reg 32 ~ RS2data_o [31:0] $end
$var reg 1 T RegWrite_o $end
$var reg 10 !" funct_7_3_o [9:0] $end
$upscope $end
$scope module IFID $end
$var wire 1 H Flush_i $end
$var wire 1 "" Stall_i $end
$var wire 1 ' clk_i $end
$var wire 1 ) start_i $end
$var wire 32 #" inst_i [31:0] $end
$var wire 32 $" addr_i [31:0] $end
$var reg 32 %" addr_o [31:0] $end
$var reg 32 &" inst_o [31:0] $end
$upscope $end
$scope module ImmGen $end
$var wire 1 ' clk_i $end
$var wire 32 '" data_i [31:0] $end
$var wire 7 (" opcode [6:0] $end
$var reg 32 )" data_o [31:0] $end
$upscope $end
$scope module Instruction_Memory $end
$var wire 32 *" instr_o [31:0] $end
$var wire 32 +" addr_i [31:0] $end
$upscope $end
$scope module MEMWB $end
$var wire 32 ," ALUdata_i [31:0] $end
$var wire 1 ^ MemtoReg_i $end
$var wire 5 -" RDaddr_i [4:0] $end
$var wire 1 ` RegWrite_i $end
$var wire 1 ' clk_i $end
$var wire 1 ) start_i $end
$var wire 32 ." ReadData_i [31:0] $end
$var wire 1 7 MEMWBenable_i $end
$var reg 32 /" ALUdata_o [31:0] $end
$var reg 1 0" MemtoReg_o $end
$var reg 5 1" RDaddr_o [4:0] $end
$var reg 32 2" ReadData_o [31:0] $end
$var reg 1 d RegWrite_o $end
$upscope $end
$scope module MUX_ALUSrc $end
$var wire 32 3" data2_i [31:0] $end
$var wire 1 x select_i $end
$var wire 32 4" data_o [31:0] $end
$var wire 32 5" data1_i [31:0] $end
$upscope $end
$scope module MUX_ALUSrc_RS1 $end
$var wire 32 6" data1_i [31:0] $end
$var wire 32 7" data3_i [31:0] $end
$var wire 2 8" select_i [1:0] $end
$var wire 32 9" data_o [31:0] $end
$var wire 32 :" data2_i [31:0] $end
$var reg 32 ;" data_reg [31:0] $end
$upscope $end
$scope module MUX_ALUSrc_RS2 $end
$var wire 32 <" data1_i [31:0] $end
$var wire 32 =" data3_i [31:0] $end
$var wire 2 >" select_i [1:0] $end
$var wire 32 ?" data_o [31:0] $end
$var wire 32 @" data2_i [31:0] $end
$var reg 32 A" data_reg [31:0] $end
$upscope $end
$scope module MUX_MemtoReg $end
$var wire 32 B" data1_i [31:0] $end
$var wire 32 C" data2_i [31:0] $end
$var wire 1 0" select_i $end
$var wire 32 D" data_o [31:0] $end
$upscope $end
$scope module MUX_PCSrc $end
$var wire 32 E" data1_i [31:0] $end
$var wire 32 F" data2_i [31:0] $end
$var wire 1 H select_i $end
$var wire 32 G" data_o [31:0] $end
$upscope $end
$scope module PC $end
$var wire 1 m PCWrite_i $end
$var wire 1 ' clk_i $end
$var wire 32 H" pc_i [31:0] $end
$var wire 1 ( rst_i $end
$var wire 1 ) start_i $end
$var wire 1 7 stall_i $end
$var reg 32 I" pc_o [31:0] $end
$upscope $end
$scope module RS1_RS2_eq $end
$var wire 1 I data_o $end
$var wire 32 J" data2_i [31:0] $end
$var wire 32 K" data1_i [31:0] $end
$upscope $end
$scope module Registers $end
$var wire 5 L" RDaddr_i [4:0] $end
$var wire 32 M" RDdata_i [31:0] $end
$var wire 5 N" RS1addr_i [4:0] $end
$var wire 5 O" RS2addr_i [4:0] $end
$var wire 1 d RegWrite_i $end
$var wire 1 ' clk_i $end
$var wire 32 P" RS2data_o [31:0] $end
$var wire 32 Q" RS1data_o [31:0] $end
$upscope $end
$scope module dcache $end
$var wire 1 R" cache_dirty $end
$var wire 1 S" cache_sram_enable $end
$var wire 4 T" cache_sram_index [3:0] $end
$var wire 1 U" cache_sram_write $end
$var wire 1 ' clk_i $end
$var wire 1 [ cpu_MemRead_i $end
$var wire 1 ] cpu_MemWrite_i $end
$var wire 32 V" cpu_addr_i [31:0] $end
$var wire 32 W" cpu_data_i [31:0] $end
$var wire 32 X" cpu_data_o [31:0] $end
$var wire 1 Y" cpu_req $end
$var wire 1 7 cpu_stall_o $end
$var wire 256 Z" mem_data_o [255:0] $end
$var wire 1 $ mem_enable_o $end
$var wire 1 # mem_write_o $end
$var wire 256 [" r_hit_data [255:0] $end
$var wire 1 ( rst_i $end
$var wire 1 \" write_hit $end
$var wire 1 ]" sram_valid $end
$var wire 22 ^" sram_tag [21:0] $end
$var wire 1 _" sram_dirty $end
$var wire 25 `" sram_cache_tag [24:0] $end
$var wire 256 a" sram_cache_data [255:0] $end
$var wire 256 b" mem_data_i [255:0] $end
$var wire 32 c" mem_addr_o [31:0] $end
$var wire 1 " mem_ack_i $end
$var wire 1 d" hit $end
$var wire 23 e" cpu_tag [22:0] $end
$var wire 5 f" cpu_offset [4:0] $end
$var wire 4 g" cpu_index [3:0] $end
$var wire 25 h" cache_sram_tag [24:0] $end
$var wire 256 i" cache_sram_data [255:0] $end
$var reg 1 j" cache_write $end
$var reg 32 k" cpu_data [31:0] $end
$var reg 1 l" mem_enable $end
$var reg 1 m" mem_write $end
$var reg 3 n" state [2:0] $end
$var reg 256 o" w_hit_data [255:0] $end
$var reg 1 p" write_back $end
$scope module dcache_sram $end
$var wire 4 q" addr_i [3:0] $end
$var wire 1 ' clk_i $end
$var wire 256 r" data_i [255:0] $end
$var wire 1 S" enable_i $end
$var wire 1 ( rst_i $end
$var wire 25 s" tag_i [24:0] $end
$var wire 1 \" write_hit_i $end
$var wire 1 U" write_i $end
$var reg 256 t" data_o [255:0] $end
$var reg 1 d" hit_o $end
$var reg 25 u" tag_o [24:0] $end
$var integer 32 v" i [31:0] $end
$var integer 32 w" j [31:0] $end
$upscope $end
$upscope $end
$upscope $end
$scope module Data_Memory $end
$var wire 1 " ack_o $end
$var wire 32 x" addr_i [31:0] $end
$var wire 1 ' clk_i $end
$var wire 256 y" data_i [255:0] $end
$var wire 256 z" data_o [255:0] $end
$var wire 1 $ enable_i $end
$var wire 1 ( rst_i $end
$var wire 1 # write_i $end
$var wire 27 {" addr [26:0] $end
$var reg 4 |" count [3:0] $end
$var reg 256 }" data [255:0] $end
$var reg 2 ~" state [1:0] $end
$upscope $end
$upscope $end
$enddefinitions $end
#0
$dumpvars
b0 ~"
bx }"
b0 |"
b0 {"
bx z"
bx y"
b0 x"
b10 w"
b10000 v"
b1000000000000000000000000 u"
bx t"
b1000000000000000000000000 s"
bx r"
b0 q"
0p"
bx00000000000000000000000000000000 o"
b0 n"
0m"
0l"
bx k"
0j"
bx i"
b1000000000000000000000000 h"
b0 g"
b0 f"
b0 e"
0d"
b0 c"
bx b"
bx a"
b1000000000000000000000000 `"
0_"
b0 ^"
1]"
0\"
bx ["
bx Z"
0Y"
bx X"
b0 W"
b0 V"
0U"
b0 T"
0S"
0R"
bx Q"
bx P"
b0 O"
b0 N"
b0 M"
b0 L"
bx K"
bx J"
b0 I"
b100 H"
b100 G"
b0 F"
b100 E"
b0 D"
b0 C"
b0 B"
b0 A"
b0 @"
b0 ?"
b0 >"
b0 ="
b0 <"
b0 ;"
b0 :"
b0 9"
b0 8"
b0 7"
b0 6"
b0 5"
b0 4"
b0 3"
b0 2"
b0 1"
00"
b0 /"
bx ."
b0 -"
b0 ,"
b0 +"
bx *"
b0 )"
b0 ("
b0 '"
b0 &"
b0 %"
b0 $"
bx #"
0""
b0 !"
b0 ~
b0 }
b0 |
b0 {
b0 z
b0 y
0x
b0 w
b0 v
bx u
bx t
b0 s
b0 r
b0 q
b0 p
b0 o
0n
1m
b0 l
b0 k
b0 j
b0 i
b0 h
b0 g
b0 f
b0 e
0d
b0 c
b0 b
b0 a
0`
b0 _
0^
0]
b0 \
0[
b0 Z
0Y
b0 X
0W
0V
b0 U
0T
b0 S
0R
0Q
0P
0O
0N
b0 M
0L
b0 K
0J
xI
0H
b0 G
b100 F
b100 E
b0 D
b0 C
b0 B
b110 A
b0 @
b0 ?
b0 >
b110 =
0<
b0 ;
b0 :
b0 9
b0 8
07
b0 6
b0 5
bx 4
bx 3
bx 2
bx 1
bx 0
bx /
b0 .
bx -
bx ,
x+
bx *
0)
1(
0'
b0 &
bx %
0$
0#
0"
bx !
$end
#12
1I
b0 u
b0 K"
b0 Q"
b0 t
b0 J"
b0 P"
b101 2
b11 1
b10 0
b10010000000011 #"
b10010000000011 *"
b1000000000 /
1)
0(
#25
1N
1O
1Q
1R
b11 ("
b1000 p
b10 s
b11 K
b10000000010010010000011 #"
b10000000010010010000011 *"
b1000 G"
b1000 H"
bx 2"
bx C"
b10010000000011 8
b10010000000011 &"
b10010000000011 '"
b1000 F
b1000 E"
b100 6
b100 G
b100 $"
b100 +"
b100 I"
b1 .
0+
1'
#50
0'
#75
b1000 B
b100 v
b100 )"
b1001 p
b100 r
b100 O"
b100 k
b1000 =
b1000 A
b100000000010010100000011 #"
b100000000010010100000011 *"
b1100 G"
b1100 H"
b10000000010010010000011 8
b10000000010010010000011 &"
b10000000010010010000011 '"
b1100 C
b1100 F"
b100 9
b100 D
b100 %"
b1000 U
b1000 l
b1000 z
b10 ?
b10 !"
1x
1Y
1V
1T
b1100 F
b1100 E"
b1000 6
b1000 G
b1000 $"
b1000 +"
b1000 I"
b10 .
1'
#100
0'
#125
b10000 B
b1000 v
b1000 )"
1""
1<
17
b100 >
b100 S
1S"
1Y"
b100 :
b100 4"
b1010 p
b1000 r
b1000 O"
b1000 k
b110000000010010110000011 #"
b110000000010010110000011 *"
b10000 G"
b10000 H"
b1000 _
b1000 a
b1000 -"
1[
1^
1`
b1001 U
b1001 l
b1001 z
b100 f
b100 }
b100 y
b100 3"
b100000000010010100000011 8
b100000000010010100000011 &"
b100000000010010100000011 '"
b11000 C
b11000 F"
b1000 9
b1000 D
b1000 %"
b10000 F
b10000 E"
b1100 6
b1100 G
b1100 $"
b1100 +"
b1100 I"
b11 .
1'
#150
0'
#175
b0 2"
b0 C"
b100 n"
b100 .
1+
1'
#200
0'
#225
b1 n"
1$
1l"
b101 .
1'
#250
0'
#275
b1 |"
b1 ~"
b110 .
1'
#300
0'
#325
b10 |"
b111 .
1'
#350
0'
#375
b11 |"
b1000 .
1'
#400
0'
#425
b100 |"
b1001 .
1'
#450
0'
#475
b101 |"
b1010 .
1'
#500
0'
#525
b110 |"
b1011 .
1'
#550
0'
#575
b111 |"
b1100 .
1'
#600
0'
#625
b1000 |"
b1101 .
1'
#650
0'
#675
1"
b1001 |"
b1110 .
1'
#700
0'
#725
b100010001000100100010001000100011001100110011010001000100010001010101010101010110011001100110011101110111011110001000100010001001100110011001101010101010101010111011101110111100110011001100110111011101110100000000000000000000000000000000 o"
b11101110111011101111111111111111 ."
b11101110111011101111111111111111 X"
b11101110111011101111111111111111 k"
0"
1U"
b100010001000100100010001000100011001100110011010001000100010001010101010101010110011001100110011101110111011110001000100010001001100110011001101010101010101010111011101110111100110011001100110111011101110111101110111011101111111111111111 ["
b100010001000100100010001000100011001100110011010001000100010001010101010101010110011001100110011101110111011110001000100010001001100110011001101010101010101010111011101110111100110011001100110111011101110111101110111011101111111111111111 %
b100010001000100100010001000100011001100110011010001000100010001010101010101010110011001100110011101110111011110001000100010001001100110011001101010101010101010111011101110111100110011001100110111011101110111101110111011101111111111111111 3
b100010001000100100010001000100011001100110011010001000100010001010101010101010110011001100110011101110111011110001000100010001001100110011001101010101010101010111011101110111100110011001100110111011101110111101110111011101111111111111111 Z"
b100010001000100100010001000100011001100110011010001000100010001010101010101010110011001100110011101110111011110001000100010001001100110011001101010101010101010111011101110111100110011001100110111011101110111101110111011101111111111111111 y"
b100010001000100100010001000100011001100110011010001000100010001010101010101010110011001100110011101110111011110001000100010001001100110011001101010101010101010111011101110111100110011001100110111011101110111101110111011101111111111111111 a"
b100010001000100100010001000100011001100110011010001000100010001010101010101010110011001100110011101110111011110001000100010001001100110011001101010101010101010111011101110111100110011001100110111011101110111101110111011101111111111111111 t"
b0 |"
b0 ~"
b10 n"
1j"
0$
0l"
b100010001000100100010001000100011001100110011010001000100010001010101010101010110011001100110011101110111011110001000100010001001100110011001101010101010101010111011101110111100110011001100110111011101110111101110111011101111111111111111 i"
b100010001000100100010001000100011001100110011010001000100010001010101010101010110011001100110011101110111011110001000100010001001100110011001101010101010101010111011101110111100110011001100110111011101110111101110111011101111111111111111 r"
b100010001000100100010001000100011001100110011010001000100010001010101010101010110011001100110011101110111011110001000100010001001100110011001101010101010101010111011101110111100110011001100110111011101110111101110111011101111111111111111 !
b100010001000100100010001000100011001100110011010001000100010001010101010101010110011001100110011101110111011110001000100010001001100110011001101010101010101010111011101110111100110011001100110111011101110111101110111011101111111111111111 4
b100010001000100100010001000100011001100110011010001000100010001010101010101010110011001100110011101110111011110001000100010001001100110011001101010101010101010111011101110111100110011001100110111011101110111101110111011101111111111111111 b"
b100010001000100100010001000100011001100110011010001000100010001010101010101010110011001100110011101110111011110001000100010001001100110011001101010101010101010111011101110111100110011001100110111011101110111101110111011101111111111111111 z"
b100010001000100100010001000100011001100110011010001000100010001010101010101010110011001100110011101110111011110001000100010001001100110011001101010101010101010111011101110111100110011001100110111011101110111101110111011101111111111111111 }"
b1111 .
1'
#750
0'
#775
0""
07
b100010001000100100010001000100011001100110011010001000100010001010101010101010110011001100110011101110111011110001000100010001001100110011001101010101010101010111011101110111100110011001100110111011101110100000000000000000000000000000000 i"
b100010001000100100010001000100011001100110011010001000100010001010101010101010110011001100110011101110111011110001000100010001001100110011001101010101010101010111011101110111100110011001100110111011101110100000000000000000000000000000000 r"
1d"
0U"
b0 n"
0j"
b10000 .
1'
#800
0'
#825
b100010001000100100010001000100011001100110011010001000100010001010101010101010110011001100110011101110111011110001000100010001001100110011001101010101010101010111011101110110000000000000000000000000000000011101110111011101111111111111111 i"
b100010001000100100010001000100011001100110011010001000100010001010101010101010110011001100110011101110111011110001000100010001001100110011001101010101010101010111011101110110000000000000000000000000000000011101110111011101111111111111111 r"
b11101110111011101111111111111111 X
b11101110111011101111111111111111 5"
b11101110111011101111111111111111 ?"
b11101110111011101111111111111111 A"
b11000 B
b100010001000100100010001000100011001100110011010001000100010001010101010101010110011001100110011101110111011110001000100010001001100110011001101010101010101010111011101110110000000000000000000000000000000011101110111011101111111111111111 o"
b11001100110011001101110111011101 ."
b11001100110011001101110111011101 X"
b11001100110011001101110111011101 k"
b1 c
b1 >"
b1 i
b1100 v
b1100 )"
b11101110111011101111111111111111 :"
b11101110111011101111111111111111 @"
b11101110111011101111111111111111 D"
b11101110111011101111111111111111 M"
b1000 >
b1000 S
b100 f"
b1000 :
b1000 4"
b1011 p
b1100 r
b1100 O"
b1100 k
b1000000000010011000000011 #"
b1000000000010011000000011 *"
b10100 G"
b10100 H"
b1000 e
b1000 1"
b1000 L"
b11101110111011101111111111111111 2"
b11101110111011101111111111111111 C"
10"
1d
b1001 _
b1001 a
b1001 -"
b100 Z
b100 ,"
b100 7"
b100 ="
b100 V"
b1010 U
b1010 l
b1010 z
b1000 f
b1000 }
b1000 y
b1000 3"
b110000000010010110000011 8
b110000000010010110000011 &"
b110000000010010110000011 '"
b100100 C
b100100 F"
b1100 9
b1100 D
b1100 %"
b10100 F
b10100 E"
b10000 6
b10000 G
b10000 $"
b10000 +"
b10000 I"
b10001 .
0+
1'
#850
0'
#875
b100000 B
b100010001000100100010001000100011001100110011010001000100010001010101010101010110011001100110011101110111011110001000100010001001100110011001111011101110111011111111111111111100110011001100110111011101110111101110111011101111111111111111 i"
b100010001000100100010001000100011001100110011010001000100010001010101010101010110011001100110011101110111011110001000100010001001100110011001111011101110111011111111111111111100110011001100110111011101110111101110111011101111111111111111 r"
b10101010101010101011101110111011 ."
b10101010101010101011101110111011 X"
b10101010101010101011101110111011 k"
b10000 v
b10000 )"
b100010001000100100010001000100011001100110011010001000100010001010101010101010110011001100110011101110111011110001000100010001001100110011001111011101110111011111111111111111100110011001100110111011101110111101110111011101111111111111111 o"
b0 c
b0 >"
b0 i
b1100 >
b1100 S
b1100 p
b10000 r
b10000 O"
b10000 k
b1100 :
b1100 4"
b0 X
b0 5"
b0 ?"
b0 A"
b1000 f"
b11001100110011001101110111011101 :"
b11001100110011001101110111011101 @"
b11001100110011001101110111011101 D"
b11001100110011001101110111011101 M"
b1010000000010011010000011 #"
b1010000000010011010000011 *"
b11000 G"
b11000 H"
b1000000000010011000000011 8
b1000000000010011000000011 &"
b1000000000010011000000011 '"
b110000 C
b110000 F"
b10000 9
b10000 D
b10000 %"
b1011 U
b1011 l
b1011 z
b1100 f
b1100 }
b1100 y
b1100 3"
b11101110111011101111111111111111 \
b11101110111011101111111111111111 W"
b1010 _
b1010 a
b1010 -"
b1000 Z
b1000 ,"
b1000 7"
b1000 ="
b1000 V"
b1001 e
b1001 1"
b1001 L"
b100 /"
b100 B"
b11001100110011001101110111011101 2"
b11001100110011001101110111011101 C"
b11000 F
b11000 E"
b10100 6
b10100 G
b10100 $"
b10100 +"
b10100 I"
b10010 .
1'
#900
0'
#925
b100010001000100100010001000100011001100110011010001000100010001010101010101010110011001100110011101110111011100000000000000000000000000000000101010101010101010111011101110111100110011001100110111011101110111101110111011101111111111111111 i"
b100010001000100100010001000100011001100110011010001000100010001010101010101010110011001100110011101110111011100000000000000000000000000000000101010101010101010111011101110111100110011001100110111011101110111101110111011101111111111111111 r"
b101000 B
b10001000100010001001100110011001 ."
b10001000100010001001100110011001 X"
b10001000100010001001100110011001 k"
b100010001000100100010001000100011001100110011010001000100010001010101010101010110011001100110011101110111011100000000000000000000000000000000101010101010101010111011101110111100110011001100110111011101110111101110111011101111111111111111 o"
b10100 v
b10100 )"
b10000 >
b10000 S
b10101010101010101011101110111011 :"
b10101010101010101011101110111011 @"
b10101010101010101011101110111011 D"
b10101010101010101011101110111011 M"
b1100 f"
b10000 :
b10000 4"
b1101 p
b10100 r
b10100 O"
b10100 k
b1100000000010011100000011 #"
b1100000000010011100000011 *"
b11100 G"
b11100 H"
b1010 e
b1010 1"
b1010 L"
b1000 /"
b1000 B"
b10101010101010101011101110111011 2"
b10101010101010101011101110111011 C"
b0 \
b0 W"
b1011 _
b1011 a
b1011 -"
b1100 Z
b1100 ,"
b1100 7"
b1100 ="
b1100 V"
b1100 U
b1100 l
b1100 z
b10000 f
b10000 }
b10000 y
b10000 3"
b1010000000010011010000011 8
b1010000000010011010000011 &"
b1010000000010011010000011 '"
b111100 C
b111100 F"
b10100 9
b10100 D
b10100 %"
b11100 F
b11100 E"
b11000 6
b11000 G
b11000 $"
b11000 +"
b11000 I"
b10011 .
1'
#950
0'
#975
b100010001000100100010001000100011001100110011010001000100010001010101010101010000000000000000000000000000000010001000100010001001100110011001101010101010101010111011101110111100110011001100110111011101110111101110111011101111111111111111 i"
b100010001000100100010001000100011001100110011010001000100010001010101010101010000000000000000000000000000000010001000100010001001100110011001101010101010101010111011101110111100110011001100110111011101110111101110111011101111111111111111 r"
b110000 B
b100010001000100100010001000100011001100110011010001000100010001010101010101010000000000000000000000000000000010001000100010001001100110011001101010101010101010111011101110111100110011001100110111011101110111101110111011101111111111111111 o"
b1100110011001100111011101110111 ."
b1100110011001100111011101110111 X"
b1100110011001100111011101110111 k"
b11000 v
b11000 )"
b10100 >
b10100 S
b1110 p
b11000 r
b11000 O"
b11000 k
b10100 :
b10100 4"
b10000 f"
b10001000100010001001100110011001 :"
b10001000100010001001100110011001 @"
b10001000100010001001100110011001 D"
b10001000100010001001100110011001 M"
b1110000000010011110000011 #"
b1110000000010011110000011 *"
b100000 G"
b100000 H"
b1100000000010011100000011 8
b1100000000010011100000011 &"
b1100000000010011100000011 '"
b1001000 C
b1001000 F"
b11000 9
b11000 D
b11000 %"
b1101 U
b1101 l
b1101 z
b10100 f
b10100 }
b10100 y
b10100 3"
b1100 _
b1100 a
b1100 -"
b10000 Z
b10000 ,"
b10000 7"
b10000 ="
b10000 V"
b1011 e
b1011 1"
b1011 L"
b1100 /"
b1100 B"
b10001000100010001001100110011001 2"
b10001000100010001001100110011001 C"
b100000 F
b100000 E"
b11100 6
b11100 G
b11100 $"
b11100 +"
b11100 I"
b10100 .
1'
#1000
0'
#1025
b100010001000100100010001000100011001100110011000000000000000000000000000000000110011001100110011101110111011110001000100010001001100110011001101010101010101010111011101110111100110011001100110111011101110111101110111011101111111111111111 i"
b100010001000100100010001000100011001100110011000000000000000000000000000000000110011001100110011101110111011110001000100010001001100110011001101010101010101010111011101110111100110011001100110111011101110111101110111011101111111111111111 r"
b111000 B
b100010001000100100010001000100011001100110011000000000000000000000000000000000110011001100110011101110111011110001000100010001001100110011001101010101010101010111011101110111100110011001100110111011101110111101110111011101111111111111111 o"
b1000100010001000101010101010101 ."
b1000100010001000101010101010101 X"
b1000100010001000101010101010101 k"
b11100 v
b11100 )"
b11000 >
b11000 S
b1100110011001100111011101110111 :"
b1100110011001100111011101110111 @"
b1100110011001100111011101110111 D"
b1100110011001100111011101110111 M"
b10100 f"
b11000 :
b11000 4"
b1111 p
b11100 r
b11100 O"
b11100 k
b10000000000010100000000011 #"
b10000000000010100000000011 *"
b100100 G"
b100100 H"
b1100 e
b1100 1"
b1100 L"
b10000 /"
b10000 B"
b1100110011001100111011101110111 2"
b1100110011001100111011101110111 C"
b1101 _
b1101 a
b1101 -"
b10100 Z
b10100 ,"
b10100 7"
b10100 ="
b10100 V"
b1110 U
b1110 l
b1110 z
b11000 f
b11000 }
b11000 y
b11000 3"
b1110000000010011110000011 8
b1110000000010011110000011 &"
b1110000000010011110000011 '"
b1010100 C
b1010100 F"
b11100 9
b11100 D
b11100 %"
b100100 F
b100100 E"
b100000 6
b100000 G
b100000 $"
b100000 +"
b100000 I"
b10101 .
1'
#1050
0'
#1075
b100010001000100000000000000000000000000000000010001000100010001010101010101010110011001100110011101110111011110001000100010001001100110011001101010101010101010111011101110111100110011001100110111011101110111101110111011101111111111111111 i"
b100010001000100000000000000000000000000000000010001000100010001010101010101010110011001100110011101110111011110001000100010001001100110011001101010101010101010111011101110111100110011001100110111011101110111101110111011101111111111111111 r"
b1000000 B
b100010001000100000000000000000000000000000000010001000100010001010101010101010110011001100110011101110111011110001000100010001001100110011001101010101010101010111011101110111100110011001100110111011101110111101110111011101111111111111111 o"
b100010001000100011001100110011 ."
b100010001000100011001100110011 X"
b100010001000100011001100110011 k"
b100000 v
b100000 )"
b11100 >
b11100 S
b10000 p
b0 r
b1010 s
b0 O"
b0 k
b11100 :
b11100 4"
b11000 f"
b1000100010001000101010101010101 :"
b1000100010001000101010101010101 @"
b1000100010001000101010101010101 D"
b1000100010001000101010101010101 M"
b10010000000010100010000011 #"
b10010000000010100010000011 *"
b101000 G"
b101000 H"
b10000000000010100000000011 8
b10000000000010100000000011 &"
b10000000000010100000000011 '"
b1100000 C
b1100000 F"
b100000 9
b100000 D
b100000 %"
b1111 U
b1111 l
b1111 z
b11100 f
b11100 }
b11100 y
b11100 3"
b1110 _
b1110 a
b1110 -"
b11000 Z
b11000 ,"
b11000 7"
b11000 ="
b11000 V"
b1101 e
b1101 1"
b1101 L"
b10100 /"
b10100 B"
b1000100010001000101010101010101 2"
b1000100010001000101010101010101 C"
b101000 F
b101000 E"
b100100 6
b100100 G
b100100 $"
b100100 +"
b100100 I"
b10110 .
1'
#1100
0'
#1125
b100010001000100011001100110011010001000100010001010101010101010110011001100110011101110111011110001000100010001001100110011001101010101010101010111011101110111100110011001100110111011101110111101110111011101111111111111111 i"
b100010001000100011001100110011010001000100010001010101010101010110011001100110011101110111011110001000100010001001100110011001101010101010101010111011101110111100110011001100110111011101110111101110111011101111111111111111 r"
b1001000 B
b100010001000100011001100110011010001000100010001010101010101010110011001100110011101110111011110001000100010001001100110011001101010101010101010111011101110111100110011001100110111011101110111101110111011101111111111111111 o"
b1000100010001 ."
b1000100010001 X"
b1000100010001 k"
b100100 v
b100100 )"
b100000 >
b100000 S
b100010001000100011001100110011 :"
b100010001000100011001100110011 @"
b100010001000100011001100110011 D"
b100010001000100011001100110011 M"
b11100 f"
b100000 :
b100000 4"
b10001 p
b100 r
b100 O"
b100 k
b10100000000010100100000011 #"
b10100000000010100100000011 *"
b101100 G"
b101100 H"
b1110 e
b1110 1"
b1110 L"
b11000 /"
b11000 B"
b100010001000100011001100110011 2"
b100010001000100011001100110011 C"
b1111 _
b1111 a
b1111 -"
b11100 Z
b11100 ,"
b11100 7"
b11100 ="
b11100 V"
b10000 U
b10000 l
b10000 z
b0 f
b0 }
b1010 ?
b1010 !"
b100000 y
b100000 3"
b10010000000010100010000011 8
b10010000000010100010000011 &"
b10010000000010100010000011 '"
b1101100 C
b1101100 F"
b100100 9
b100100 D
b100100 %"
b101100 F
b101100 E"
b101000 6
b101000 G
b101000 $"
b101000 +"
b101000 I"
b10111 .
1'
#1150
0'
