CPU.vcd
$date
	Sun Jan 03 20:41:18 2021
$end
$version
	Icarus Verilog
$end
$timescale
	1s
$end
$scope module testbench $end
$var wire 256 ! mem_cpu_data [255:0] $end
$var wire 1 " mem_cpu_ack $end
$var wire 1 # cpu_mem_write $end
$var wire 1 $ cpu_mem_enable $end
$var wire 256 % cpu_mem_data [255:0] $end
$var wire 32 & cpu_mem_addr [31:0] $end
$var reg 1 ' Clk $end
$var reg 1 ( Reset $end
$var reg 1 ) Start $end
$var reg 27 * address [26:0] $end
$var reg 1 + flag $end
$var reg 4 , index [3:0] $end
$var reg 25 - tag [24:0] $end
$var integer 32 . counter [31:0] $end
$var integer 32 / i [31:0] $end
$var integer 32 0 j [31:0] $end
$var integer 32 1 outfile [31:0] $end
$var integer 32 2 outfile2 [31:0] $end
$scope module CPU $end
$var wire 1 ' clk_i $end
$var wire 1 ( rst_i $end
$var wire 1 ) start_i $end
$var wire 1 # mem_write_o $end
$var wire 1 $ mem_enable_o $end
$var wire 256 3 mem_data_o [255:0] $end
$var wire 256 4 mem_data_i [255:0] $end
$var wire 32 5 mem_addr_o [31:0] $end
$var wire 1 " mem_ack_i $end
$var wire 32 6 PC_addr [31:0] $end
$var wire 1 7 MemStall $end
$var wire 32 8 IFID_inst_o [31:0] $end
$var wire 32 9 IFID_addr_o [31:0] $end
$scope module ALU $end
$var wire 32 : data2_i [31:0] $end
$var wire 32 ; data1_i [31:0] $end
$var wire 1 < Zero_o $end
$var wire 4 = ALUCtrl_i [3:0] $end
$var reg 32 > data_o [31:0] $end
$upscope $end
$scope module ALU_Control $end
$var wire 10 ? funct_i [9:0] $end
$var wire 2 @ ALUOp_i [1:0] $end
$var reg 4 A ALUCtrl_o [3:0] $end
$upscope $end
$scope module Add_Branch_addr $end
$var wire 32 B data1_i [31:0] $end
$var wire 32 C data_o [31:0] $end
$var wire 32 D data2_i [31:0] $end
$upscope $end
$scope module Add_PC $end
$var wire 32 E data2_i [31:0] $end
$var wire 32 F data_o [31:0] $end
$var wire 32 G data1_i [31:0] $end
$upscope $end
$scope module Branch_And $end
$var wire 1 H data_o $end
$var wire 1 I data2_i $end
$var wire 1 J data1_i $end
$upscope $end
$scope module Control $end
$var wire 7 K Op_i [6:0] $end
$var wire 1 L NoOp_i $end
$var reg 2 M ALUOp_o [1:0] $end
$var reg 1 N ALUSrc_o $end
$var reg 1 J Branch_o $end
$var reg 1 O MemRead_o $end
$var reg 1 P MemWrite_o $end
$var reg 1 Q MemtoReg_o $end
$var reg 1 R RegWrite_o $end
$upscope $end
$scope module EXMEM $end
$var wire 32 S ALUdata_i [31:0] $end
$var wire 1 ' clk_i $end
$var wire 1 ) start_i $end
$var wire 1 T RegWrite_i $end
$var wire 5 U RDaddr_i [4:0] $end
$var wire 1 V MemtoReg_i $end
$var wire 1 W MemWrite_i $end
$var wire 32 X MemWdata_i [31:0] $end
$var wire 1 Y MemRead_i $end
$var wire 1 7 EXMEMenable_i $end
$var reg 32 Z ALUdata_o [31:0] $end
$var reg 1 [ MemRead_o $end
$var reg 32 \ MemWdata_o [31:0] $end
$var reg 1 ] MemWrite_o $end
$var reg 1 ^ MemtoReg_o $end
$var reg 5 _ RDaddr_o [4:0] $end
$var reg 1 ` RegWrite_o $end
$upscope $end
$scope module Forward $end
$var wire 5 a EXMEM_Rd_i [4:0] $end
$var wire 1 ` EXMEM_RegWrite_i $end
$var wire 2 b ForwardA_o [1:0] $end
$var wire 2 c ForwardB_o [1:0] $end
$var wire 1 d MEMWB_RegWrite_i $end
$var wire 5 e MEMWB_Rd_i [4:0] $end
$var wire 5 f IDEX_RS2_i [4:0] $end
$var wire 5 g IDEX_RS1_i [4:0] $end
$var reg 2 h ForwardA_reg [1:0] $end
$var reg 2 i ForwardB_reg [1:0] $end
$upscope $end
$scope module Hazard_Detection $end
$var wire 5 j IFID_RS1_i [4:0] $end
$var wire 5 k IFID_RS2_i [4:0] $end
$var wire 5 l IDEX_RD_i [4:0] $end
$var wire 1 Y IDEX_MemRead_i $end
$var reg 1 L NoOp_o $end
$var reg 1 m PCWrite_o $end
$var reg 1 n Stall_o $end
$upscope $end
$scope module IDEX $end
$var wire 2 o ALUOp_i [1:0] $end
$var wire 1 N ALUSrc_i $end
$var wire 1 O MemRead_i $end
$var wire 1 P MemWrite_i $end
$var wire 1 Q MemtoReg_i $end
$var wire 5 p RDaddr_i [4:0] $end
$var wire 5 q RS1addr_i [4:0] $end
$var wire 5 r RS2addr_i [4:0] $end
$var wire 1 R RegWrite_i $end
$var wire 1 ' clk_i $end
$var wire 10 s funct_7_3_i [9:0] $end
$var wire 1 ) start_i $end
$var wire 32 t RS2data_i [31:0] $end
$var wire 32 u RS1data_i [31:0] $end
$var wire 32 v ImmGen_i [31:0] $end
$var wire 1 7 IDEXenable_i $end
$var reg 2 w ALUOp_o [1:0] $end
$var reg 1 x ALUSrc_o $end
$var reg 32 y ImmGen_o [31:0] $end
$var reg 1 Y MemRead_o $end
$var reg 1 W MemWrite_o $end
$var reg 1 V MemtoReg_o $end
$var reg 5 z RDaddr_o [4:0] $end
$var reg 5 { RS1addr_o [4:0] $end
$var reg 32 | RS1data_o [31:0] $end
$var reg 5 } RS2addr_o [4:0] $end
$var reg 32 ~ RS2data_o [31:0] $end
$var reg 1 T RegWrite_o $end
$var reg 10 !" funct_7_3_o [9:0] $end
$upscope $end
$scope module IFID $end
$var wire 1 H Flush_i $end
$var wire 1 "" Stall_i $end
$var wire 1 ' clk_i $end
$var wire 1 ) start_i $end
$var wire 32 #" inst_i [31:0] $end
$var wire 32 $" addr_i [31:0] $end
$var reg 32 %" addr_o [31:0] $end
$var reg 32 &" inst_o [31:0] $end
$upscope $end
$scope module ImmGen $end
$var wire 1 ' clk_i $end
$var wire 32 '" data_i [31:0] $end
$var wire 7 (" opcode [6:0] $end
$var reg 32 )" data_o [31:0] $end
$upscope $end
$scope module Instruction_Memory $end
$var wire 32 *" instr_o [31:0] $end
$var wire 32 +" addr_i [31:0] $end
$upscope $end
$scope module MEMWB $end
$var wire 32 ," ALUdata_i [31:0] $end
$var wire 1 ^ MemtoReg_i $end
$var wire 5 -" RDaddr_i [4:0] $end
$var wire 1 ` RegWrite_i $end
$var wire 1 ' clk_i $end
$var wire 1 ) start_i $end
$var wire 32 ." ReadData_i [31:0] $end
$var wire 1 7 MEMWBenable_i $end
$var reg 32 /" ALUdata_o [31:0] $end
$var reg 1 0" MemtoReg_o $end
$var reg 5 1" RDaddr_o [4:0] $end
$var reg 32 2" ReadData_o [31:0] $end
$var reg 1 d RegWrite_o $end
$upscope $end
$scope module MUX_ALUSrc $end
$var wire 32 3" data2_i [31:0] $end
$var wire 1 x select_i $end
$var wire 32 4" data_o [31:0] $end
$var wire 32 5" data1_i [31:0] $end
$upscope $end
$scope module MUX_ALUSrc_RS1 $end
$var wire 32 6" data1_i [31:0] $end
$var wire 32 7" data3_i [31:0] $end
$var wire 2 8" select_i [1:0] $end
$var wire 32 9" data_o [31:0] $end
$var wire 32 :" data2_i [31:0] $end
$var reg 32 ;" data_reg [31:0] $end
$upscope $end
$scope module MUX_ALUSrc_RS2 $end
$var wire 32 <" data1_i [31:0] $end
$var wire 32 =" data3_i [31:0] $end
$var wire 2 >" select_i [1:0] $end
$var wire 32 ?" data_o [31:0] $end
$var wire 32 @" data2_i [31:0] $end
$var reg 32 A" data_reg [31:0] $end
$upscope $end
$scope module MUX_MemtoReg $end
$var wire 32 B" data1_i [31:0] $end
$var wire 32 C" data2_i [31:0] $end
$var wire 1 0" select_i $end
$var wire 32 D" data_o [31:0] $end
$upscope $end
$scope module MUX_PCSrc $end
$var wire 32 E" data1_i [31:0] $end
$var wire 32 F" data2_i [31:0] $end
$var wire 1 H select_i $end
$var wire 32 G" data_o [31:0] $end
$upscope $end
$scope module PC $end
$var wire 1 m PCWrite_i $end
$var wire 1 ' clk_i $end
$var wire 32 H" pc_i [31:0] $end
$var wire 1 ( rst_i $end
$var wire 1 ) start_i $end
$var wire 1 7 stall_i $end
$var reg 32 I" pc_o [31:0] $end
$upscope $end
$scope module RS1_RS2_eq $end
$var wire 1 I data_o $end
$var wire 32 J" data2_i [31:0] $end
$var wire 32 K" data1_i [31:0] $end
$upscope $end
$scope module Registers $end
$var wire 5 L" RDaddr_i [4:0] $end
$var wire 32 M" RDdata_i [31:0] $end
$var wire 5 N" RS1addr_i [4:0] $end
$var wire 5 O" RS2addr_i [4:0] $end
$var wire 1 d RegWrite_i $end
$var wire 1 ' clk_i $end
$var wire 32 P" RS2data_o [31:0] $end
$var wire 32 Q" RS1data_o [31:0] $end
$upscope $end
$scope module dcache $end
$var wire 1 R" cache_dirty $end
$var wire 1 S" cache_sram_enable $end
$var wire 4 T" cache_sram_index [3:0] $end
$var wire 1 U" cache_sram_write $end
$var wire 1 ' clk_i $end
$var wire 1 [ cpu_MemRead_i $end
$var wire 1 ] cpu_MemWrite_i $end
$var wire 32 V" cpu_addr_i [31:0] $end
$var wire 32 W" cpu_data_i [31:0] $end
$var wire 32 X" cpu_data_o [31:0] $end
$var wire 1 Y" cpu_req $end
$var wire 1 7 cpu_stall_o $end
$var wire 256 Z" mem_data_o [255:0] $end
$var wire 1 $ mem_enable_o $end
$var wire 1 # mem_write_o $end
$var wire 1 ( rst_i $end
$var wire 1 [" write_hit $end
$var wire 1 \" sram_valid $end
$var wire 22 ]" sram_tag [21:0] $end
$var wire 1 ^" sram_dirty $end
$var wire 25 _" sram_cache_tag [24:0] $end
$var wire 256 `" sram_cache_data [255:0] $end
$var wire 256 a" r_hit_data [255:0] $end
$var wire 256 b" mem_data_i [255:0] $end
$var wire 32 c" mem_addr_o [31:0] $end
$var wire 1 " mem_ack_i $end
$var wire 1 d" hit $end
$var wire 23 e" cpu_tag [22:0] $end
$var wire 5 f" cpu_offset [4:0] $end
$var wire 4 g" cpu_index [3:0] $end
$var wire 25 h" cache_sram_tag [24:0] $end
$var wire 256 i" cache_sram_data [255:0] $end
$var reg 1 j" cache_write $end
$var reg 32 k" cpu_data [31:0] $end
$var reg 1 l" mem_enable $end
$var reg 1 m" mem_write $end
$var reg 3 n" state [2:0] $end
$var reg 256 o" w_hit_data [255:0] $end
$var reg 1 p" write_back $end
$scope module dcache_sram $end
$var wire 4 q" addr_i [3:0] $end
$var wire 1 ' clk_i $end
$var wire 256 r" data_i [255:0] $end
$var wire 1 S" enable_i $end
$var wire 1 ( rst_i $end
$var wire 25 s" tag_i [24:0] $end
$var wire 1 U" write_i $end
$var reg 256 t" data_o [255:0] $end
$var reg 1 d" hit_o $end
$var reg 25 u" tag_o [24:0] $end
$var integer 32 v" i [31:0] $end
$var integer 32 w" j [31:0] $end
$upscope $end
$upscope $end
$upscope $end
$scope module Data_Memory $end
$var wire 1 " ack_o $end
$var wire 32 x" addr_i [31:0] $end
$var wire 1 ' clk_i $end
$var wire 256 y" data_i [255:0] $end
$var wire 256 z" data_o [255:0] $end
$var wire 1 $ enable_i $end
$var wire 1 ( rst_i $end
$var wire 1 # write_i $end
$var wire 27 {" addr [26:0] $end
$var reg 4 |" count [3:0] $end
$var reg 256 }" data [255:0] $end
$var reg 2 ~" state [1:0] $end
$upscope $end
$upscope $end
$enddefinitions $end
#0
$dumpvars
b0 ~"
bx }"
b0 |"
b0 {"
bx z"
b0 y"
b0 x"
b10 w"
b10000 v"
b0 u"
b0 t"
b1000000000000000000000000 s"
bx r"
b0 q"
0p"
b0 o"
b0 n"
0m"
0l"
b0 k"
0j"
bx i"
b1000000000000000000000000 h"
b0 g"
b0 f"
b0 e"
0d"
b0 c"
bx b"
b0 a"
b0 `"
b0 _"
0^"
b0 ]"
0\"
0["
b0 Z"
0Y"
b0 X"
b0 W"
b0 V"
0U"
b0 T"
0S"
0R"
bx Q"
bx P"
b0 O"
b0 N"
b0 M"
b0 L"
bx K"
bx J"
b0 I"
b100 H"
b100 G"
b0 F"
b100 E"
b0 D"
b0 C"
b0 B"
b0 A"
b0 @"
b0 ?"
b0 >"
b0 ="
b0 <"
b0 ;"
b0 :"
b0 9"
b0 8"
b0 7"
b0 6"
b0 5"
b0 4"
b0 3"
b0 2"
b0 1"
00"
b0 /"
b0 ."
b0 -"
b0 ,"
b0 +"
bx *"
b0 )"
b0 ("
b0 '"
b0 &"
b0 %"
b0 $"
bx #"
0""
b0 !"
b0 ~
b0 }
b0 |
b0 {
b0 z
b0 y
0x
b0 w
b0 v
bx u
bx t
b0 s
b0 r
b0 q
b0 p
b0 o
0n
1m
b0 l
b0 k
b0 j
b0 i
b0 h
b0 g
b0 f
b0 e
0d
b0 c
b0 b
b0 a
0`
b0 _
0^
0]
b0 \
0[
b0 Z
0Y
b0 X
0W
0V
b0 U
0T
b0 S
0R
0Q
0P
0O
0N
b0 M
0L
b0 K
0J
xI
0H
b0 G
b100 F
b100 E
b0 D
b0 C
b0 B
b110 A
b0 @
b0 ?
b0 >
b110 =
0<
b0 ;
b0 :
b0 9
b0 8
07
b0 6
b0 5
bx 4
b0 3
bx 2
bx 1
bx 0
bx /
b0 .
bx -
bx ,
x+
bx *
0)
1(
0'
b0 &
b0 %
0$
0#
0"
bx !
$end
#12
1I
b0 u
b0 K"
b0 Q"
b0 t
b0 J"
b0 P"
b101 2
b11 1
b10 0
b1000000000000111010010011 #"
b1000000000000111010010011 *"
b1000000000 /
1)
0(
#25
b100000 C
b100000 F"
b100000 B
1N
1R
b10000 v
b10000 )"
b10011 ("
b11101 p
b10000 r
b10011 K
b10000 O"
b10000 k
b11110111101000111100110011 #"
b11110111101000111100110011 *"
b1000 G"
b1000 H"
b1000000000000111010010011 8
b1000000000000111010010011 &"
b1000000000000111010010011 '"
b1000 F
b1000 E"
b100 6
b100 G
b100 $"
b100 +"
b100 I"
b1 .
0+
1'
#50
0'
#75
b1111010 B
0N
b10 M
b10 o
b111101 v
b111101 )"
1<
b10000 >
b10000 S
b10000 :
b10000 4"
b110011 ("
b11110 p
b11101 r
b11101 q
b1000 s
b110011 K
b11101 O"
b11101 N"
b11101 k
b11101 j
b11110111110000111010110011 #"
b11110111110000111010110011 *"
b1100 G"
b1100 H"
b11110111101000111100110011 8
b11110111101000111100110011 &"
b11110111101000111100110011 '"
b1111110 C
b1111110 F"
b100 9
b100 D
b100 %"
b11101 U
b11101 l
b11101 z
b10000 f
b10000 }
b10000 y
b10000 3"
1x
1T
b1100 F
b1100 E"
b1000 6
b1000 G
b1000 $"
b1000 +"
b1000 I"
b10 .
1'
#100
0'
#125
b10000 X
b10000 5"
b10000 ?"
b10000 A"
b10000 ;
b10000 9"
b10000 ;"
b10 c
b10 >"
b10 i
b10 b
b10 8"
b10 h
0<
b100000000 >
b100000000 S
b10000 f"
b10000 :
b10000 4"
b101 =
b101 A
b11101 p
b11110 q
b11110 N"
b11110 j
b1110111011000000000010000010011 #"
b1110111011000000000010000010011 *"
b10000 G"
b10000 H"
b11101 _
b11101 a
b11101 -"
b10000 Z
b10000 ,"
b10000 7"
b10000 ="
b10000 V"
1`
b11110 U
b11110 l
b11110 z
b11101 f
b11101 }
b11101 g
b11101 {
b1000 ?
b1000 !"
b111101 y
b111101 3"
b10 @
b10 w
0x
b11110111110000111010110011 8
b11110111110000111010110011 &"
b11110111110000111010110011 '"
b10000010 C
b10000010 F"
b1000 9
b1000 D
b1000 %"
b10000 F
b10000 E"
b1100 6
b1100 G
b1100 $"
b1100 +"
b1100 I"
b11 .
1'
#150
0'
#175
1<
b111011101100 B
1N
b0 M
b0 o
b11101110110 v
b11101110110 )"
b10000 o"
b1 c
b1 >"
b1 i
b10 b
b10 8"
b10 h
1I
b1000 {"
b0 t
b0 J"
b0 P"
b1000000000000 >
b1000000000000 S
b10000 :
b10000 4"
b100000000 &
b100000000 5
b100000000 c"
b100000000 x"
b10011 ("
b1000 p
b10110 r
b0 q
b111011000 s
b10011 K
b10110 O"
b0 N"
b10110 k
b0 j
b100000000 ;
b100000000 9"
b100000000 ;"
b10000 X
b10000 5"
b10000 ?"
b10000 A"
b1000 T"
b1000 q"
b1000 g"
b0 f"
b10000 :"
b10000 @"
b10000 D"
b10000 M"
b11110101000000010000110011 #"
b11110101000000010000110011 *"
b10100 G"
b10100 H"
b1110111011000000000010000010011 8
b1110111011000000000010000010011 &"
b1110111011000000000010000010011 '"
b111011111000 C
b111011111000 F"
b1100 9
b1100 D
b1100 %"
b11101 U
b11101 l
b11101 z
b11110 g
b11110 {
b10000 \
b10000 W"
b11110 _
b11110 a
b11110 -"
b100000000 Z
b100000000 ,"
b100000000 7"
b100000000 ="
b100000000 V"
b11101 e
b11101 1"
b11101 L"
b10000 /"
b10000 B"
1d
b10100 F
b10100 E"
b10000 6
b10000 G
b10000 $"
b10000 +"
b10000 I"
b100 .
1'
#200
0'
#225
b1111010 B
0N
b10 M
b10 o
b0 c
b0 >"
b0 i
b0 b
b0 8"
b0 h
b111101 v
b111101 )"
b10000000 {"
0I
b0 X
b0 5"
b0 ?"
b0 A"
b1000000000000 &
b1000000000000 5
b1000000000000 c"
b1000000000000 x"
b11101110110 >
b11101110110 S
b11101110110 :
b11101110110 4"
b10000 t
b10000 J"
b10000 P"
b100000000 :"
b100000000 @"
b100000000 D"
b100000000 M"
b0 ;
b0 9"
b0 ;"
b1000000000000000000001000 h"
b1000000000000000000001000 s"
b1000 e"
b0 T"
b0 q"
b0 g"
b110 =
b110 A
b110011 ("
b11101 r
b1000 q
b1000 s
b110011 K
b11101 O"
b1000 N"
b11101 k
b1000 j
b1100101010101000000010000010011 #"
b1100101010101000000010000010011 *"
b11000 G"
b11000 H"
b11110 e
b11110 1"
b11110 L"
b100000000 /"
b100000000 B"
b11101 _
b11101 a
b11101 -"
b1000000000000 Z
b1000000000000 ,"
b1000000000000 7"
b1000000000000 ="
b1000000000000 V"
b1000 U
b1000 l
b1000 z
b10110 f
b10110 }
b0 g
b0 {
b111011000 ?
b111011000 !"
b11101110110 y
b11101110110 3"
b0 @
b0 w
1x
b11110101000000010000110011 8
b11110101000000010000110011 &"
b11110101000000010000110011 '"
b10001010 C
b10001010 F"
b10000 9
b10000 D
b10000 %"
b11000 F
b11000 E"
b10100 6
b10100 G
b10100 $"
b10100 +"
b10100 I"
b101 .
1'
#250
0'
#275
b110010101010 B
b11101110110 ;
b11101110110 9"
b11101110110 ;"
1N
b0 M
b0 o
b11001010101 v
b11001010101 )"
b0 o"
b1 c
b1 >"
b1 i
b10 b
b10 8"
b10 h
1I
b111011 {"
b0 t
b0 J"
b0 P"
b11101110110000000000000 >
b11101110110000000000000 S
b11101100000 &
b11101100000 5
b11101100000 c"
b11101100000 x"
b10011 ("
b10101 r
b110010000 s
b10011 K
b10101 O"
b10101 k
b1000000000000 :
b1000000000000 4"
b101 =
b101 A
b1000000000000 X
b1000000000000 5"
b1000000000000 ?"
b1000000000000 A"
b1000000000000000000000011 h"
b1000000000000000000000011 s"
b11 e"
b1011 T"
b1011 q"
b1011 g"
b10110 f"
b1000000000000 :"
b1000000000000 @"
b1000000000000 D"
b1000000000000 M"
b11111001000000010000110011 #"
b11111001000000010000110011 *"
b11100 G"
b11100 H"
b1100101010101000000010000010011 8
b1100101010101000000010000010011 &"
b1100101010101000000010000010011 '"
b110010111110 C
b110010111110 F"
b10100 9
b10100 D
b10100 %"
b11101 f
b11101 }
b1000 g
b1000 {
b1000 ?
b1000 !"
b111101 y
b111101 3"
b10000 ~
b10000 <"
b10 @
b10 w
0x
b0 \
b0 W"
b1000 _
b1000 a
b1000 -"
b11101110110 Z
b11101110110 ,"
b11101110110 7"
b11101110110 ="
b11101110110 V"
b11101 e
b11101 1"
b11101 L"
b1000000000000 /"
b1000000000000 B"
b11100 F
b11100 E"
b11000 6
b11000 G
b11000 $"
b11000 +"
b11000 I"
b110 .
1'
#300
0'
#325
b1111100 B
0N
b10 M
b10 o
b1000000000000 o"
b0 c
b0 >"
b0 i
b10 b
b10 8"
b10 h
b111110 v
b111110 )"
b111011101100000000 {"
0I
b11101110110 u
b11101110110 K"
b11101110110 Q"
b0 X
b0 5"
b0 ?"
b0 A"
b11101110110000000000000 &
b11101110110000000000000 5
b11101110110000000000000 c"
b11101110110000000000000 x"
b11101110110011001010101 >
b11101110110011001010101 S
b11001010101 :
b11001010101 4"
b100000000 t
b100000000 J"
b100000000 P"
b11101110110 :"
b11101110110 @"
b11101110110 D"
b11101110110 M"
b11101110110000000000000 ;
b11101110110000000000000 9"
b11101110110000000000000 ;"
b1000000000011101110110000 h"
b1000000000011101110110000 s"
b11101110110000 e"
b0 T"
b0 q"
b0 g"
b0 f"
b110 =
b110 A
b110011 ("
b11110 r
b1000 s
b110011 K
b11110 O"
b11110 k
b100010001000000010000010011 #"
b100010001000000010000010011 *"
b100000 G"
b100000 H"
b1000 e
b1000 1"
b1000 L"
b11101110110 /"
b11101110110 B"
b1000000000000 \
b1000000000000 W"
b11101110110000000000000 Z
b11101110110000000000000 ,"
b11101110110000000000000 7"
b11101110110000000000000 ="
b11101110110000000000000 V"
b10101 f
b10101 }
b110010000 ?
b110010000 !"
b11001010101 y
b11001010101 3"
b0 ~
b0 <"
b0 @
b0 w
1x
b11111001000000010000110011 8
b11111001000000010000110011 &"
b11111001000000010000110011 '"
b10010100 C
b10010100 F"
b11000 9
b11000 D
b11000 %"
b100000 F
b100000 E"
b11100 6
b11100 G
b11100 $"
b11100 +"
b11100 I"
b111 .
1'
#350
0'
#375
b10001000 B
1N
b0 M
b0 o
b1000100 v
b1000100 )"
b10 b
b10 8"
b10 h
b0 o"
b111011101100110010 {"
b0 t
b0 J"
b0 P"
b1110111011001100101010100000000 >
b1110111011001100101010100000000 S
b11101110110011001000000 &
b11101110110011001000000 5
b11101110110011001000000 c"
b11101110110011001000000 x"
b11101110110000000000000 u
b11101110110000000000000 K"
b11101110110000000000000 Q"
b10011 ("
b100 r
b10000 s
b10011 K
b100 O"
b100 k
b100000000 :
b100000000 4"
b101 =
b101 A
b11101110110011001010101 ;
b11101110110011001010101 9"
b11101110110011001010101 ;"
b100000000 X
b100000000 5"
b100000000 ?"
b100000000 A"
b1000000000011101110110011 h"
b1000000000011101110110011 s"
b11101110110011 e"
b10 T"
b10 q"
b10 g"
b10101 f"
b11101110110000000000000 :"
b11101110110000000000000 @"
b11101110110000000000000 D"
b11101110110000000000000 M"
b1000100000000000010010010011 #"
b1000100000000000010010010011 *"
b100100 G"
b100100 H"
b100010001000000010000010011 8
b100010001000000010000010011 &"
b100010001000000010000010011 '"
b10100100 C
b10100100 F"
b11100 9
b11100 D
b11100 %"
b11110 f
b11110 }
b1000 ?
b1000 !"
b111110 y
b111110 3"
b100000000 ~
b100000000 <"
b11101110110 |
b11101110110 6"
b10 @
b10 w
0x
b0 \
b0 W"
b11101110110011001010101 Z
b11101110110011001010101 ,"
b11101110110011001010101 7"
b11101110110011001010101 ="
b11101110110011001010101 V"
b11101110110000000000000 /"
b11101110110000000000000 B"
b100100 F
b100100 E"
b100000 6
b100000 G
b100000 $"
b100000 +"
b100000 I"
b1000 .
1'
#400
0'
#425
b100010000 B
b100000000 o"
b10 b
b10 8"
b10 h
b10001000 v
b10001000 )"
b11101110110011001010101000 {"
b0 u
b0 K"
b0 Q"
b1110111011001100101010100000000 &
b1110111011001100101010100000000 5
b1110111011001100101010100000000 c"
b1110111011001100101010100000000 x"
b1110111011001100101010101000100 >
b1110111011001100101010101000100 S
b1000100 :
b1000100 4"
b11101110110011001010101 t
b11101110110011001010101 J"
b11101110110011001010101 P"
b11101110110011001010101 :"
b11101110110011001010101 @"
b11101110110011001010101 D"
b11101110110011001010101 M"
b1001110111011001100101010 h"
b1001110111011001100101010 s"
b1110111011001100101010 e"
b1000 T"
b1000 q"
b1000 g"
b0 f"
b0 X
b0 5"
b0 ?"
b0 A"
b1110111011001100101010100000000 ;
b1110111011001100101010100000000 9"
b1110111011001100101010100000000 ;"
b110 =
b110 A
b1001 p
b1000 r
b0 q
b100000 s
b1000 O"
b0 N"
b1000 k
b0 j
b11111001001000010010110011 #"
b11111001001000010010110011 *"
b101000 G"
b101000 H"
b11101110110011001010101 /"
b11101110110011001010101 B"
b100000000 \
b100000000 W"
b1110111011001100101010100000000 Z
b1110111011001100101010100000000 ,"
b1110111011001100101010100000000 7"
b1110111011001100101010100000000 ="
b1110111011001100101010100000000 V"
b100 f
b100 }
b10000 ?
b10000 !"
b1000100 y
b1000100 3"
b0 ~
b0 <"
b11101110110000000000000 |
b11101110110000000000000 6"
b0 @
b0 w
1x
b1000100000000000010010010011 8
b1000100000000000010010010011 &"
b1000100000000000010010010011 '"
b100110000 C
b100110000 F"
b100000 9
b100000 D
b100000 %"
b101000 F
b101000 E"
b100100 6
b100100 G
b100100 $"
b100100 +"
b100100 I"
b1001 .
1'
#450
0'
#475
b1111100 B
0N
b10 M
b10 o
b111110 v
b111110 )"
b10 c
b10 >"
b10 i
b0 b
b0 8"
b0 h
b0 o"
b11101110110011001010101010 {"
b10001000 >
b10001000 S
b1110111011001100101010101000000 &
b1110111011001100101010101000000 5
b1110111011001100101010101000000 c"
b1110111011001100101010101000000 x"
b100000000 t
b100000000 J"
b100000000 P"
b110011 ("
b11110 r
b1001 q
b1000 s
b110011 K
b11110 O"
b1001 N"
b11110 k
b1001 j
b10001000 :
b10001000 4"
b0 ;
b0 9"
b0 ;"
b1110111011001100101010101000100 X
b1110111011001100101010101000100 5"
b1110111011001100101010101000100 ?"
b1110111011001100101010101000100 A"
b1010 T"
b1010 q"
b1010 g"
b100 f"
b1110111011001100101010100000000 :"
b1110111011001100101010100000000 @"
b1110111011001100101010100000000 D"
b1110111011001100101010100000000 M"
b1001100101001000010010010011 #"
b1001100101001000010010010011 *"
b101100 G"
b101100 H"
b11111001001000010010110011 8
b11111001001000010010110011 &"
b11111001001000010010110011 '"
b10100000 C
b10100000 F"
b100100 9
b100100 D
b100100 %"
b1001 U
b1001 l
b1001 z
b1000 f
b1000 }
b0 g
b0 {
b100000 ?
b100000 !"
b10001000 y
b10001000 3"
b11101110110011001010101 ~
b11101110110011001010101 <"
b0 |
b0 6"
b0 \
b0 W"
b1110111011001100101010101000100 Z
b1110111011001100101010101000100 ,"
b1110111011001100101010101000100 7"
b1110111011001100101010101000100 ="
b1110111011001100101010101000100 V"
b1110111011001100101010100000000 /"
b1110111011001100101010100000000 B"
b101100 F
b101100 E"
b101000 6
b101000 G
b101000 $"
b101000 +"
b101000 I"
b1010 .
1'
#500
0'
#525
b100000000 :
b100000000 4"
b10001000 ;
b10001000 9"
b10001000 ;"
b100110010 B
1N
b0 M
b0 o
b11101110110011001010101010001000000000000000000000000000000000000000000000000000000000000000000 o"
b10 b
b10 8"
b10 h
b0 c
b0 >"
b0 i
b10011001 v
b10011001 )"
b100 {"
1I
b10000000 &
b10000000 5
b10000000 c"
b10000000 x"
b1000100000000000 >
b1000100000000000 S
b0 t
b0 J"
b0 P"
b1110111011001100101010101000100 :"
b1110111011001100101010101000100 @"
b1110111011001100101010101000100 D"
b1110111011001100101010101000100 M"
b1000000000000000000000000 h"
b1000000000000000000000000 s"
b0 e"
b100 T"
b100 q"
b100 g"
b1000 f"
b100000000 X
b100000000 5"
b100000000 ?"
b100000000 A"
b101 =
b101 A
b10011 ("
b11001 r
b100000 s
b10011 K
b11001 O"
b11001 k
b11111001001000010010110011 #"
b11111001001000010010110011 *"
b110000 G"
b110000 H"
b1110111011001100101010101000100 /"
b1110111011001100101010101000100 B"
b1110111011001100101010101000100 \
b1110111011001100101010101000100 W"
b1001 _
b1001 a
b1001 -"
b10001000 Z
b10001000 ,"
b10001000 7"
b10001000 ="
b10001000 V"
b11110 f
b11110 }
b1001 g
b1001 {
b1000 ?
b1000 !"
b111110 y
b111110 3"
b100000000 ~
b100000000 <"
b10 @
b10 w
0x
b1001100101001000010010010011 8
b1001100101001000010010010011 &"
b1001100101001000010010010011 '"
b101011010 C
b101011010 F"
b101000 9
b101000 D
b101000 %"
b110000 F
b110000 E"
b101100 6
b101100 G
b101100 $"
b101100 +"
b101100 I"
b1011 .
1'
#550
0'
#575
b1111100 B
0N
b10 M
b10 o
b111110 v
b111110 )"
b100000000 o"
b10 b
b10 8"
b10 h
0I
b10001000000 {"
b10001000 u
b10001000 K"
b10001000 Q"
b100000000 t
b100000000 J"
b100000000 P"
b1000100010011001 >
b1000100010011001 S
b10011001 :
b10011001 4"
b1000100000000000 &
b1000100000000000 5
b1000100000000000 c"
b1000100000000000 x"
b110011 ("
b11110 r
b1000 s
b110011 K
b11110 O"
b11110 k
b110 =
b110 A
b1000100000000000 ;
b1000100000000000 9"
b1000100000000000 ;"
b0 X
b0 5"
b0 ?"
b0 A"
b1000000000000000001000100 h"
b1000000000000000001000100 s"
b1000100 e"
b0 T"
b0 q"
b0 g"
b0 f"
b10001000 :"
b10001000 @"
b10001000 D"
b10001000 M"
b1010101001001000010010010011 #"
b1010101001001000010010010011 *"
b110100 G"
b110100 H"
b11111001001000010010110011 8
b11111001001000010010110011 &"
b11111001001000010010110011 '"
b10101000 C
b10101000 F"
b101100 9
b101100 D
b101100 %"
b11001 f
b11001 }
b100000 ?
b100000 !"
b10011001 y
b10011001 3"
b0 ~
b0 <"
b0 @
b0 w
1x
b100000000 \
b100000000 W"
b1000100000000000 Z
b1000100000000000 ,"
b1000100000000000 7"
b1000100000000000 ="
b1000100000000000 V"
b1001 e
b1001 1"
b1001 L"
b10001000 /"
b10001000 B"
b110100 F
b110100 E"
b110000 6
b110000 G
b110000 $"
b110000 +"
b110000 I"
b1100 .
1'
#600
0'
